<?xml version="1.0" encoding="utf-8"?>
<!-- Generator: Adobe Illustrator 23.0.1, SVG Export Plug-In . SVG Version: 6.00 Build 0)  -->
<svg version="1.1" id="Camada_1" xmlns:svgjs="http://svgjs.com/svgjs"
	 xmlns="http://www.w3.org/2000/svg" xmlns:xlink="http://www.w3.org/1999/xlink" x="0px" y="0px" viewBox="0 0 512 512"
	 style="enable-background:new 0 0 512 512;" xml:space="preserve">
<style type="text/css">
	.st0{fill:#ff5f15;}
</style>
<g>
	<g>
		<g id="_x38__35_">
			<g>
				<path class="st0" d="M402.7,221.2L173.5,13.3c-17.7-17.7-46.3-17.7-64,0s-17.7,46.3,0,64l197,178.7l-197,178.7
					c-17.7,17.7-17.7,46.3,0,64s46.3,17.7,64,0l229.2-207.9c9.6-9.6,13.8-22.3,13-34.8C416.4,243.5,412.2,230.7,402.7,221.2z"/>
			</g>
		</g>
	</g>
</g>
</svg>
