<?xml version="1.0" encoding="utf-8"?>
<!-- Generator: Adobe Illustrator 23.0.1, SVG Export Plug-In . SVG Version: 6.00 Build 0)  -->
<svg version="1.1" id="Capa_1" xmlns="http://www.w3.org/2000/svg" xmlns:xlink="http://www.w3.org/1999/xlink" x="0px" y="0px"
	 viewBox="0 0 512 512" style="enable-background:new 0 0 512 512;" xml:space="preserve">
<style type="text/css">
	.st0{fill:#ff5f15;}
</style>
<path class="st0" d="M467.2,44.8C438.3,15.9,399.8,0,358.9,0s-79.3,15.9-108.2,44.8L9.6,285.9L0,512l226.1-9.6l241.1-241
	C526.9,201.7,526.9,104.5,467.2,44.8z M59,453.1l2.7-64.8l62,62L59,453.1z M72.5,293L268.2,97.4l55.7,55.7l-171,171L72.5,293z
	 M219,439.5l-31-80.4l171-171l55.7,55.7L219,439.5z"/>
</svg>
