<?xml version="1.0" encoding="utf-8"?>
<!-- Generator: Adobe Illustrator 23.0.1, SVG Export Plug-In . SVG Version: 6.00 Build 0)  -->
<svg version="1.1" id="Layer_1" xmlns="http://www.w3.org/2000/svg" xmlns:xlink="http://www.w3.org/1999/xlink" x="0px" y="0px"
	 viewBox="0 0 512 512" style="enable-background:new 0 0 512 512;" xml:space="preserve">
<style type="text/css">
	.st0{fill:#222222;}
	.st1{fill:#ff5f15;}
</style>
<path class="st0" d="M370.7,511.5H141.3c-61,0-112.2-45.7-119.1-106.3L0.7,216.5c-6.5-49.8,35.1-96.4,85.4-95.7
	c26.5,1,26.5,38.9,0,40c-13.3,0-25.5,5.5-34.3,15.4S38.9,198.8,40.4,212l21.5,188.7c4.6,40.4,38.8,70.9,79.4,70.9h229.4
	c40.7,0,74.8-30.5,79.4-70.9L471.6,212c1.5-13.2-2.5-25.9-11.4-35.8c-8.8-9.9-21-15.4-34.3-15.4c-26.5-1-26.5-38.9,0-40
	c50.3-0.8,91.9,45.8,85.4,95.7l-21.5,188.7C482.9,465.8,431.7,511.5,370.7,511.5L370.7,511.5z"/>
<path class="st0" d="M184,186.8v-73.9c4-96.8,141.9-96.7,145.9,0v8H244c-26.5,1.1-26.5,38.9,0,40h105.9c11,0,20-8.9,20-20v-28
	C363.6-37,150.2-36.9,144,112.8v73.9c0,11,8.9,20,20,20S184,197.8,184,186.8z"/>
<path class="st1" d="M195,290.7c0,13.8-11.2,25-25,25c-33.1-1.3-33.1-48.7,0-50C183.8,265.7,195,276.9,195,290.7z"/>
<path class="st1" d="M255.9,265.7c-13.8,0-25,11.2-25,25c1.3,33.1,48.7,33.1,50,0C280.9,276.9,269.7,265.7,255.9,265.7z"/>
<path class="st1" d="M341.9,265.7c-13.8,0-25,11.2-25,25c1.3,33.1,48.7,33.1,50,0C366.8,276.9,355.7,265.7,341.9,265.7z"/>
<path class="st1" d="M170,351.6c-13.8,0-25,11.2-25,25c1.3,33.1,48.7,33.1,50,0C195,362.8,183.8,351.6,170,351.6z"/>
<path class="st1" d="M255.9,351.6c-13.8,0-25,11.2-25,25c1.3,33.1,48.7,33.1,50,0C280.9,362.8,269.7,351.6,255.9,351.6z"/>
<path class="st1" d="M341.9,351.6c-13.8,0-25,11.2-25,25c1.3,33.1,48.7,33.1,50,0C366.8,362.8,355.7,351.6,341.9,351.6z"/>
</svg>
